{"skeleton":{"images":""},
"bones":[{"name":"root"}],
"slots":[
	{"name":"side_right_foot_0","bone":"root","attachment":"side_right_foot_0"},
	{"name":"side_right_leg_lower_0","bone":"root","attachment":"side_right_leg_lower_0"},
	{"name":"side_right_leg_upper_0","bone":"root","attachment":"side_right_leg_upper_0"},
	{"name":"side_left_foot_0","bone":"root","attachment":"side_left_foot_0"},
	{"name":"side_left_leg_lower_0","bone":"root","attachment":"side_left_leg_lower_0"},
	{"name":"side_left_leg_upper_0","bone":"root","attachment":"side_left_leg_upper_0"},
	{"name":"side_left_hand_0","bone":"root","attachment":"side_left_hand_0"},
	{"name":"side_left_arm_lower_0","bone":"root","attachment":"side_left_arm_lower_0"},
	{"name":"side_left_arm_upper_0","bone":"root","attachment":"side_left_arm_upper_0"},
	{"name":"side_right_hand_0","bone":"root","attachment":"side_right_hand_0"},
	{"name":"side_right_arm_lower_0","bone":"root","attachment":"side_right_arm_lower_0"},
	{"name":"side_right_arm_upper_0","bone":"root","attachment":"side_right_arm_upper_0"},
	{"name":"side_torso_0","bone":"root","attachment":"side_torso_0"},
	{"name":"side_head_0","bone":"root","attachment":"side_head_0"},
	{"name":"side_face_0","bone":"root","attachment":"side_face_0"}
],
"skins":{
	"default":{
		"side_right_foot_0":{"side_right_foot_0":{"x":770.5,"y":304,"width":99,"height":100}},
		"side_right_leg_lower_0":{"side_right_leg_lower_0":{"x":740.5,"y":369.5,"width":69,"height":153}},
		"side_right_leg_upper_0":{"side_right_leg_upper_0":{"x":749,"y":475.5,"width":84,"height":147}},
		"side_left_foot_0":{"side_left_foot_0":{"x":811.5,"y":327,"width":85,"height":84}},
		"side_left_leg_lower_0":{"side_left_leg_lower_0":{"x":788,"y":391,"width":60,"height":136}},
		"side_left_leg_upper_0":{"side_left_leg_upper_0":{"x":795,"y":486,"width":74,"height":130}},
		"side_left_hand_0":{"side_left_hand_0":{"x":851,"y":471.5,"width":108,"height":105}},
		"side_left_arm_lower_0":{"side_left_arm_lower_0":{"x":825,"y":556,"width":148,"height":148}},
		"side_left_arm_upper_0":{"side_left_arm_upper_0":{"x":801,"y":642.5,"width":146,"height":147}},
		"side_right_hand_0":{"side_right_hand_0":{"x":675.5,"y":436.5,"width":111,"height":105}},
		"side_right_arm_lower_0":{"side_right_arm_lower_0":{"x":680,"y":538.5,"width":138,"height":171}},
		"side_right_arm_upper_0":{"side_right_arm_upper_0":{"x":692.5,"y":640,"width":147,"height":160}},
		"side_torso_0":{"side_torso_0":{"x":753,"y":612.5,"width":184,"height":249}},
		"side_head_0":{"side_head_0":{"x":758,"y":931,"width":356,"height":456}},
		"side_face_0":{"side_face_0":{"x":827.5,"y":895.5,"width":87,"height":165}}
	}
},
"animations":{"animation":{}}
}